^C:\DOCUMENTS AND SETTINGS\PAVEL\МОИ ДОКУМЕНТЫ\VISUAL STUDIO 2010\PROJECTS\EXPRESS_C++\HZIP\HZIP\RELEASE\HZIP.EXE.INTERMEDIATE.MANIFEST
C:\WINDOWS\WINDOWSSHELL.MANIFEST
C:\WINDOWS\REGISTRATION\R00000000000B.CLB
C:\WINDOWS\MICROSOFT.NET\FRAMEWORK\V1.1.4322\MSCORWKS.DLL
C:\WINDOWS\MICROSOFT.NET\FRAMEWORK\V2.0.50727\MSCORWKS.DLL
C:\WINDOWS\MICROSOFT.NET\FRAMEWORK\V4.0.30319\CLR.DLL
C:\PROGRAM FILES\MICROSOFT SDKS\WINDOWS\V7.0A\BIN\MT.EXE.CONFIG
C:\DOCUMENTS AND SETTINGS\PAVEL\Мои документы\VISUAL STUDIO 2010\PROJECTS\EXPRESS_C++\HZIP\RELEASE\HZIP.EXE
