^C:\DOCUMENTS AND SETTINGS\PAVEL\МОИ ДОКУМЕНТЫ\VISUAL STUDIO 2010\PROJECTS\EXPRESS_C++\UNIT_TEST\UNIT_TEST\DEBUG\MAIN.OBJ|C:\DOCUMENTS AND SETTINGS\PAVEL\МОИ ДОКУМЕНТЫ\VISUAL STUDIO 2010\PROJECTS\EXPRESS_C++\UNIT_TEST\UNIT_TEST\DEBUG\UNIT_TEST.EXE.EMBED.MANIFEST.RES
C:\PROGRAM FILES\MICROSOFT SDKS\WINDOWS\V7.0A\LIB\KERNEL32.LIB
C:\PROGRAM FILES\MICROSOFT SDKS\WINDOWS\V7.0A\LIB\USER32.LIB
C:\PROGRAM FILES\MICROSOFT SDKS\WINDOWS\V7.0A\LIB\GDI32.LIB
C:\PROGRAM FILES\MICROSOFT SDKS\WINDOWS\V7.0A\LIB\WINSPOOL.LIB
C:\PROGRAM FILES\MICROSOFT SDKS\WINDOWS\V7.0A\LIB\COMDLG32.LIB
C:\PROGRAM FILES\MICROSOFT SDKS\WINDOWS\V7.0A\LIB\ADVAPI32.LIB
C:\PROGRAM FILES\MICROSOFT SDKS\WINDOWS\V7.0A\LIB\SHELL32.LIB
C:\PROGRAM FILES\MICROSOFT SDKS\WINDOWS\V7.0A\LIB\OLE32.LIB
C:\PROGRAM FILES\MICROSOFT SDKS\WINDOWS\V7.0A\LIB\OLEAUT32.LIB
C:\PROGRAM FILES\MICROSOFT SDKS\WINDOWS\V7.0A\LIB\UUID.LIB
C:\PROGRAM FILES\MICROSOFT SDKS\WINDOWS\V7.0A\LIB\ODBC32.LIB
C:\PROGRAM FILES\MICROSOFT SDKS\WINDOWS\V7.0A\LIB\ODBCCP32.LIB
C:\DOCUMENTS AND SETTINGS\PAVEL\Мои документы\VISUAL STUDIO 2010\PROJECTS\EXPRESS_C++\UNIT_TEST\UNIT_TEST\DEBUG\UNIT_TEST.EXE.EMBED.MANIFEST.RES
C:\DOCUMENTS AND SETTINGS\PAVEL\Мои документы\VISUAL STUDIO 2010\PROJECTS\EXPRESS_C++\UNIT_TEST\UNIT_TEST\DEBUG\MAIN.OBJ
C:\DOCUMENTS AND SETTINGS\PAVEL\Мои документы\VISUAL STUDIO 2010\PROJECTS\EXPRESS_C++\UNIT_TEST\DEBUG\UNIT_TEST.EXE
C:\DOCUMENTS AND SETTINGS\PAVEL\Мои документы\VISUAL STUDIO 2010\PROJECTS\EXPRESS_C++\UNIT_TEST\DEBUG\UNIT_TEST.PDB
C:\DOCUMENTS AND SETTINGS\PAVEL\Мои документы\VISUAL STUDIO 2010\PROJECTS\EXPRESS_C++\UNIT_TEST\DEBUG\UNIT_TEST.EXP
C:\DOCUMENTS AND SETTINGS\PAVEL\Мои документы\VISUAL STUDIO 2010\PROJECTS\EXPRESS_C++\UNIT_TEST\DEBUG\UNIT_TEST.LIB
C:\PROGRAM FILES\MICROSOFT VISUAL STUDIO 10.0\VC\LIB\MSVCPRTD.LIB
C:\DOCUMENTS AND SETTINGS\PAVEL\Мои документы\VISUAL STUDIO 2010\PROJECTS\EXPRESS_C++\UNIT_TEST\UNIT_TEST\HLIB.LIB
C:\PROGRAM FILES\MICROSOFT VISUAL STUDIO 10.0\VC\LIB\MSVCRTD.LIB
C:\PROGRAM FILES\MICROSOFT VISUAL STUDIO 10.0\VC\LIB\OLDNAMES.LIB
