^C:\Documents and Settings\Pavel\Мои документы\Visual Studio 2010\Projects\Express_C++\hlib\hlib\hlib.vcxproj
C:\Documents and Settings\Pavel\Мои документы\Visual Studio 2010\Projects\Express_C++\hlib\Debug\hlib.lib
C:\Documents and Settings\Pavel\Мои документы\Visual Studio 2010\Projects\Express_C++\hlib\Debug\hlib.lib
C:\Documents and Settings\Pavel\Мои документы\Visual Studio 2010\Projects\Express_C++\hlib\Debug\hlib.exp
C:\Documents and Settings\Pavel\Мои документы\Visual Studio 2010\Projects\Express_C++\hlib\Debug\hlib.exp
