^C:\DOCUMENTS AND SETTINGS\PAVEL\МОИ ДОКУМЕНТЫ\VISUAL STUDIO 2010\PROJECTS\EXPRESS_C++\HLIB\HLIB\RELEASE\HUFFMAN.OBJ
C:\DOCUMENTS AND SETTINGS\PAVEL\Мои документы\VISUAL STUDIO 2010\PROJECTS\EXPRESS_C++\HLIB\RELEASE\HLIB.DLL
C:\DOCUMENTS AND SETTINGS\PAVEL\Мои документы\VISUAL STUDIO 2010\PROJECTS\EXPRESS_C++\HLIB\HLIB\RELEASE\HLIB.DLL.INTERMEDIATE.MANIFEST
C:\DOCUMENTS AND SETTINGS\PAVEL\МОИ ДОКУМЕНТЫ\VISUAL STUDIO 2010\PROJECTS\EXPRESS_C++\HLIB\RELEASE\HLIB.PDB
